…
  - The housing price related dataset was compiled by Dean De Cock for
    use in data science education, pulled from
    [Kaggle](https://www.kaggle.com/c/house-prices-advanced-regression-techniques/data).

## Explore Data

``` r
print(houseWide)
```

    ## # A tibble: 190 x 7
    ##       Id  Year Ages  Style    LotArea GrLivArea SalePrice
    ##    <dbl> <dbl> <chr> <chr>      <dbl>     <dbl>     <dbl>
    ##  1     1  2004 Young OneStory    3182      1269    192000
    ##  2     2  1998 Young OneStory   10140      1680    213250
    ##  3     3  1950 Old   OneStory    9600      1067    128000
    ##  4     4  1992 Young TwoStory   10186      1923    190000
    ##  5     5  2006 Young TwoStory   15611      1919    233230
    ##  6     6  2005 Young OneStory    6955      1368    202500
    ##  7     7  1955 Old   Other       9600      1661    165500
    ##  8     8  1977 Young TwoStory   12227      2872    272000
    ##  9     9  1949 Old   TwoStory    6270      2002    145000
    ## 10    10  2009 Young TwoStory    3951      1224    164500
    ## # ... with 180 more rows
…
We construct plots by layering grammatical elements on top of each other
and use aesthetic mappings to define our visualizations.

**data**

The first layer is data, we need some data to plot. The `houseWide` data
set contains information of the property’s sale price in dollars, above
grade living area, lot area, ages, building years and property’s
structure style.

``` r
print(houseWide)
```

    ## # A tibble: 190 x 7
    ##       Id  Year Ages  Style    LotArea GrLivArea SalePrice
    ##    <dbl> <dbl> <chr> <chr>      <dbl>     <dbl>     <dbl>
    ##  1     1  2004 Young OneStory    3182      1269    192000
    ##  2     2  1998 Young OneStory   10140      1680    213250
    ##  3     3  1950 Old   OneStory    9600      1067    128000
    ##  4     4  1992 Young TwoStory   10186      1923    190000
    ##  5     5  2006 Young TwoStory   15611      1919    233230
    ##  6     6  2005 Young OneStory    6955      1368    202500
    ##  7     7  1955 Old   Other       9600      1661    165500
    ##  8     8  1977 Young TwoStory   12227      2872    272000
    ##  9     9  1949 Old   TwoStory    6270      2002    145000
    ## 10    10  2009 Young TwoStory    3951      1224    164500
    ## # ... with 180 more rows
…
